[
    {    "type":"metadata",
         "vocabulary":{
         "StartTime":[1,2,3,4,5],
         "EndTime":[6,7,8,9,10],
         "Task":[11,12,13]
                  },
         "terms":{
                  "1":["CC"],
                  "2":["3hr"],
                  "3":["16hr"],
                  "4":["48hr"],
                  "5":["H1"],
                  "6":["CC"],
                  "7":["3hr"],
                  "8":["16hr"],
                  "9":["48hr"],
                 "10":["H1"],
                 "11":["Upregulated"],
                 "12":["Downregulated"],
                 "13":["PeakPresence"]
                 }
    },    
    {
        "list": [
            {
                "mode": "full", 
                "name": "refGene"
            }
        ], 
        "type": "native_track"
    }, 
{
    "type":"bigwig",
    "url":"http://mitra.stanford.edu/kundaje/annashch/bigwig/CC_rep1_merged_R1.trim.filt.srt.nodup.nonchrM.tn5_pooled.tagAlign.pf.pval.signal.bigwig",
    "name":"CC signal",
    "mode":"show",
    "colorpositive":"#ff33cc",
    "height":50,
    "fixedscale":{"min":0,"max":10}, 
    "qtc": {                                                                                                                                                                                             
            "anglescale": 1,                                                                                                                                                                                
            "height": 40,                                                                                                                                                                                   
            "pb": 128,                                                                                                                                                                                      
            "pg": 0,                                                                                                                                                                                        
            "pr": 0,                                                                                                                                                                                        
            "smooth": 3,                                                                                                                                                                                    
            "summeth": 2,                                                                                                                                                                                   
            "thtype": 0                                                                                                                                                                                     
        }                                                                                                                                                                                                  },
{
    "type":"bigwig",
    "url":"http://mitra.stanford.edu/kundaje/annashch/bigwig/3hr_rep2_merged_R1.trim.filt.srt.nodup.nonchrM.tn5_pooled.tagAlign.pf.pval.signal.bigwig",
    "name":"3hr signal",
    "mode":"show",
    "colorpositive":"#ff33cc",
    "height":50,
    "fixedscale":{"min":0,"max":10}, 
    "qtc": {                                                                                                                                                                                             
            "anglescale": 1,                                                                                                                                                                                
            "height": 40,                                                                                                                                                                                   
            "pb": 128,                                                                                                                                                                                      
            "pg": 0,                                                                                                                                                                                        
            "pr": 0,                                                                                                                                                                                        
            "smooth": 3,                                                                                                                                                                                    
            "summeth": 2,                                                                                                                                                                                   
            "thtype": 0                                                                                                                                                                                     
        }                                                                                                                                                                                                 
},
{
    "type":"bigwig",
    "url":"http://mitra.stanford.edu/kundaje/annashch/bigwig/16hr_rep2_merged_R1.trim.filt.srt.nodup.nonchrM.tn5_pooled.tagAlign.pf.pval.signal.bigwig",
    "name":"16hr signal",
    "mode":"show",
    "colorpositive":"#ff33cc",
    "height":50,
    "fixedscale":{"min":0,"max":10}, 
    "qtc": {                                                                                                                                                                                             
            "anglescale": 1,                                                                                                                                                                                
            "height": 40,                                                                                                                                                                                   
            "pb": 128,                                                                                                                                                                                      
            "pg": 0,                                                                                                                                                                                        
            "pr": 0,                                                                                                                                                                                        
            "smooth": 3,                                                                                                                                                                                    
            "summeth": 2,                                                                                                                                                                                   
            "thtype": 0                                                                                                                                                                                     
        }                                                                                                                                                                                                 
},
{
    "type":"bigwig",
    "url":"http://mitra.stanford.edu/kundaje/annashch/bigwig/48hr_rep2_merged_R1.trim.filt.srt.nodup.nonchrM.tn5_pooled.tagAlign.pf.pval.signal.bigwig",
    "name":"48hr signal",
    "mode":"show",
    "colorpositive":"#ff33cc",
    "height":50,
    "fixedscale":{"min":0,"max":10}, 
    "qtc": {                                                                                                                                                                                             
            "anglescale": 1,                                                                                                                                                                                
            "height": 40,                                                                                                                                                                                   
            "pb": 128,                                                                                                                                                                                      
            "pg": 0,                                                                                                                                                                                        
            "pr": 0,                                                                                                                                                                                        
            "smooth": 3,                                                                                                                                                                                    
            "summeth": 2,                                                                                                                                                                                   
            "thtype": 0                                                                                                                                                                                     
        }                                                                                                                                                                                                  
},
{
    "type":"bigwig",
    "url":"http://mitra.stanford.edu/kundaje/annashch/bigwig/H1_rep1_merged_R1.trim.filt.srt.nodup.nonchrM.tn5_pooled.tagAlign.pf.pval.signal.bigwig",
    "name":"H1 signal",
    "mode":"show",
    "colorpositive":"#ff33cc",
    "height":50,
    "fixedscale":{"min":0,"max":10}, 
    "qtc": {                                                                                                                                                                                             
            "anglescale": 1,                                                                                                                                                                                
            "height": 40,                                                                                                                                                                                   
            "pb": 128,                                                                                                                                                                                      
            "pg": 0,                                                                                                                                                                                        
            "pr": 0,                                                                                                                                                                                        
            "smooth": 3,                                                                                                                                                                                    
            "summeth": 2,                                                                                                                                                                                   
            "thtype": 0                                                                                                                                                                                     
        }                                                                                                                                                                                                  
}
]
